comName,sciName,locName,howMany
American Coot,Fulica americana,Baton Rouge--University Lakes,1415
American Crow,Corvus brachyrhynchos,Baton Rouge--University Lakes,3
American Goldfinch,Spinus tristis,Baton Rouge--University Lakes,5
American Robin,Turdus migratorius,Baton Rouge--University Lakes,19
American White Pelican,Pelecanus erythrorhynchos,Baton Rouge--University Lakes,76
Barn Swallow,Hirundo rustica,Baton Rouge--University Lakes,4
Belted Kingfisher,Megaceryle alcyon,Baton Rouge--University Lakes,2
Black Vulture,Coragyps atratus,Baton Rouge--University Lakes,1
Black-bellied Whistling-Duck,Dendrocygna autumnalis,Baton Rouge--University Lakes,100
Blue Jay,Cyanocitta cristata,Baton Rouge--University Lakes,24
Blue-gray Gnatcatcher,Polioptila caerulea,Baton Rouge--University Lakes,2
Blue-winged Teal,Spatula discors,Baton Rouge--University Lakes,5
Brown Thrasher,Toxostoma rufum,Baton Rouge--University Lakes,3
Brown-headed Cowbird,Molothrus ater,Baton Rouge--University Lakes,5
Canada Goose,Branta canadensis,Baton Rouge--University Lakes,50
Carolina Chickadee,Poecile carolinensis,Baton Rouge--University Lakes,17
Carolina Wren,Thryothorus ludovicianus,Baton Rouge--University Lakes,21
Cedar Waxwing,Bombycilla cedrorum,Baton Rouge--University Lakes,151
Chimney Swift,Chaetura pelagica,Baton Rouge--University Lakes,7
Common Gallinule,Gallinula galeata,Baton Rouge--University Lakes,2
Common Grackle,Quiscalus quiscula,Baton Rouge--University Lakes,60
Double-crested Cormorant,Nannopterum auritum,Baton Rouge--University Lakes,108
Downy Woodpecker,Dryobates pubescens,Baton Rouge--University Lakes,9
Eastern Kingbird,Tyrannus tyrannus,Baton Rouge--University Lakes,1
Eastern Phoebe,Sayornis phoebe,Baton Rouge--University Lakes,2
Eastern Towhee,Pipilo erythrophthalmus,Baton Rouge--University Lakes,1
European Starling,Sturnus vulgaris,Baton Rouge--University Lakes,33
Fish Crow,Corvus ossifragus,Baton Rouge--University Lakes,7
Graylag Goose,Anser anser,Baton Rouge--University Lakes,6
Great Blue Heron,Ardea herodias,Baton Rouge--University Lakes,7
Great Egret,Ardea alba,Baton Rouge--University Lakes,17
Great-tailed Grackle,Quiscalus mexicanus,Baton Rouge--University Lakes,3
Green Heron,Butorides virescens,Baton Rouge--University Lakes,2
House Finch,Haemorhous mexicanus,Baton Rouge--University Lakes,8
House Sparrow,Passer domesticus,Baton Rouge--University Lakes,17
Killdeer,Charadrius vociferus,Baton Rouge--University Lakes,9
Least Sandpiper,Calidris minutilla,Baton Rouge--University Lakes,9
Little Blue Heron,Egretta caerulea,Baton Rouge--University Lakes,3
Mallard,Anas platyrhynchos,Baton Rouge--University Lakes,31
Mourning Dove,Zenaida macroura,Baton Rouge--University Lakes,14
Muscovy Duck,Cairina moschata,Baton Rouge--University Lakes,47
Mute Swan,Cygnus olor,Baton Rouge--University Lakes,1
Neotropic Cormorant,Nannopterum brasilianum,Baton Rouge--University Lakes,142
Northern Cardinal,Cardinalis cardinalis,Baton Rouge--University Lakes,35
Northern Flicker,Colaptes auratus,Baton Rouge--University Lakes,1
Northern Mockingbird,Mimus polyglottos,Baton Rouge--University Lakes,29
Northern Parula,Setophaga americana,Baton Rouge--University Lakes,1
Northern Rough-winged Swallow,Stelgidopteryx serripennis,Baton Rouge--University Lakes,40
Orange-crowned Warbler,Leiothlypis celata,Baton Rouge--University Lakes,7
Osprey,Pandion haliaetus,Baton Rouge--University Lakes,1
Pied-billed Grebe,Podilymbus podiceps,Baton Rouge--University Lakes,45
Pine Warbler,Setophaga pinus,Baton Rouge--University Lakes,1
Purple Martin,Progne subis,Baton Rouge--University Lakes,7
Red-bellied Woodpecker,Melanerpes carolinus,Baton Rouge--University Lakes,1
Red-tailed Hawk,Buteo jamaicensis,Baton Rouge--University Lakes,1
Red-winged Blackbird,Agelaius phoeniceus,Baton Rouge--University Lakes,231
Rock Pigeon,Columba livia,Baton Rouge--University Lakes,12
Ruby-crowned Kinglet,Corthylio calendula,Baton Rouge--University Lakes,18
Ruddy Duck,Oxyura jamaicensis,Baton Rouge--University Lakes,1
Savannah Sparrow,Passerculus sandwichensis,Baton Rouge--University Lakes,1
Snowy Egret,Egretta thula,Baton Rouge--University Lakes,15
Solitary Sandpiper,Tringa solitaria,Baton Rouge--University Lakes,1
Song Sparrow,Melospiza melodia,Baton Rouge--University Lakes,1
Swamp Sparrow,Melospiza georgiana,Baton Rouge--University Lakes,2
Swan Goose,Anser cygnoides,Baton Rouge--University Lakes,1
Tree Swallow,Tachycineta bicolor,Baton Rouge--University Lakes,133
Tricolored Heron,Egretta tricolor,Baton Rouge--University Lakes,2
Tufted Titmouse,Baeolophus bicolor,Baton Rouge--University Lakes,5
Turkey Vulture,Cathartes aura,Baton Rouge--University Lakes,2
White Ibis,Eudocimus albus,Baton Rouge--University Lakes,2
White-throated Sparrow,Zonotrichia albicollis,Baton Rouge--University Lakes,1
White-winged Dove,Zenaida asiatica,Baton Rouge--University Lakes,5
Wood Duck,Aix sponsa,Baton Rouge--University Lakes,87
Yellow-rumped Warbler,Setophaga coronata,Baton Rouge--University Lakes,128
